(
{{1, 2, 3, 5, 7, 4, 6, 8, 9, 10, 11, 12, 13}, {14, 15, 16, 18, 17, 19, 20, 21, 22, 23, 24, 25}, {5, 9, 11, 14, 15}, {5, 9, 13, 15, 14}, {2, 5, 7, 12, 17}, {2, 3, 7, 17, 15}, {2, 3, 9, 15, 17}, {3, 7, 9, 15, 17}, {2, 5, 11, 17, 15}, {2, 9, 11, 15, 17}, {9, 11, 14, 17, 15}, {9, 13, 14, 15, 17}, {5, 11, 14, 16, 17}, {5, 12, 14, 17, 16}, {6, 12, 14, 16, 17}, {11, 14, 15, 17, 18}, {11, 14, 16, 18, 17}, {5, 9, 13, 19, 15}, {1, 6, 15, 17, 19}, {4, 12, 15, 19, 17}, {6, 12, 15, 17, 19}, {7, 9, 15, 20, 17}, {2, 5, 15, 19, 20}, {5, 9, 15, 19, 20}, {7, 9, 17, 20, 19}, {2, 3, 7, 21, 9}, {1, 6, 7, 21, 9}, {2, 6, 7, 9, 21}, {2, 5, 6, 21, 10}, {2, 5, 6, 11, 21}, {2, 6, 9, 11, 21}, {1, 6, 7, 12, 21}, {2, 6, 7, 21, 12}, {2, 6, 10, 12, 21}, {2, 3, 7, 15, 21}, {2, 3, 9, 21, 15}, {1, 6, 9, 21, 15}, {1, 7, 9, 15, 21}, {3, 7, 9, 21, 15}, {2, 9, 11, 21, 15}, {6, 9, 11, 15, 21}, {1, 6, 12, 15, 21}, {1, 7, 12, 21, 15}, {2, 7, 12, 15, 21}, {5, 6, 10, 21, 19}, {2, 5, 11, 19, 21}, {5, 6, 11, 19, 21}, {6, 10, 12, 19, 21}, {2, 5, 15, 21, 19}, {2, 11, 15, 19, 21}, {6, 11, 15, 21, 19}, {4, 12, 15, 21, 19}, {6, 12, 15, 19, 21}, {5, 13, 15, 21, 19}, {4, 15, 17, 21, 19}, {5, 6, 9, 22, 11}, {4, 6, 9, 12, 22}, {4, 6, 10, 22, 12}, {4, 8, 10, 12, 22}, {4, 6, 9, 22, 13}, {5, 6, 9, 13, 22}, {4, 6, 10, 13, 22}, {5, 6, 10, 22, 13}, {1, 6, 9, 15, 22}, {1, 7, 9, 22, 15}, {2, 5, 11, 15, 22}, {5, 9, 11, 15, 22}, {6, 9, 11, 22, 15}, {1, 6, 9, 22, 17}, {1, 7, 9, 17, 22}, {4, 9, 12, 22, 17}, {6, 9, 12, 17, 22}, {1, 7, 15, 22, 17}, {5, 6, 10, 19, 22}, {4, 8, 10, 22, 19}, {2, 5, 11, 22, 19}, {5, 6, 11, 22, 19}, {4, 8, 12, 19, 22}, {6, 10, 12, 22, 19}, {8, 10, 12, 19, 22}, {4, 9, 13, 19, 22}, {5, 9, 13, 22, 19}, {4, 10, 13, 22, 19}, {5, 10, 13, 19, 22}, {1, 6, 15, 19, 22}, {2, 11, 15, 22, 19}, {6, 11, 15, 19, 22}, {1, 6, 17, 22, 19}, {4, 9, 17, 22, 19}, {7, 9, 17, 19, 22}, {4, 12, 17, 19, 22}, {6, 12, 17, 22, 19}, {1, 15, 17, 19, 22}, {2, 5, 15, 20, 22}, {5, 9, 15, 20, 22}, {7, 9, 15, 22, 20}, {7, 15, 17, 22, 20}, {2, 5, 19, 22, 20}, {5, 9, 19, 22, 20}, {7, 9, 19, 20, 22}, {2, 15, 19, 20, 22}, {7, 17, 19, 22, 20}, {2, 4, 5, 23, 10}, {2, 4, 8, 10, 23}, {2, 8, 10, 23, 12}, {5, 11, 14, 15, 23}, {5, 13, 14, 23, 15}, {4, 12, 14, 23, 17}, {6, 12, 14, 17, 23}, {4, 12, 15, 17, 23}, {6, 12, 15, 23, 17}, {4, 8, 10, 19, 23}, {4, 8, 12, 23, 19}, {8, 10, 12, 23, 19}, {4, 10, 13, 19, 23}, {5, 10, 13, 23, 19}, {2, 5, 10, 21, 23}, {2, 10, 12, 21, 23}, {2, 5, 15, 23, 21}, {2, 12, 15, 21, 23}, {4, 12, 15, 23, 21}, {5, 13, 15, 23, 21}, {4, 15, 17, 23, 21}, {5, 10, 19, 23, 21}, {4, 12, 19, 21, 23}, {10, 12, 19, 23, 21}, {5, 13, 19, 21, 23}, {13, 15, 19, 21, 23}, {4, 17, 19, 23, 21}, {2, 3, 5, 24, 7}, {2, 3, 5, 9, 24}, {3, 5, 7, 24, 9}, {2, 5, 9, 24, 11}, {1, 6, 9, 24, 12}, {1, 7, 9, 12, 24}, {5, 7, 9, 24, 12}, {5, 9, 11, 24, 14}, {4, 9, 12, 24, 14}, {5, 9, 12, 14, 24}, {4, 9, 13, 14, 24}, {2, 3, 7, 24, 17}, {2, 5, 7, 17, 24}, {2, 3, 9, 17, 24}, {1, 6, 9, 17, 24}, {1, 7, 9, 24, 17}, {3, 7, 9, 17, 24}, {2, 5, 11, 24, 17}, {2, 9, 11, 17, 24}, {1, 6, 12, 24, 17}, {1, 7, 12, 17, 24}, {5, 7, 12, 24, 17}, {4, 9, 12, 17, 24}, {6, 9, 12, 24, 17}, {5, 11, 14, 17, 24}, {9, 11, 14, 24, 17}, {4, 12, 14, 17, 24}, {5, 12, 14, 24, 17}, {9, 13, 14, 17, 24}, {9, 13, 15, 24, 17}, {13, 14, 15, 24, 17}, {4, 9, 13, 24, 19}, {9, 13, 15, 19, 24}, {4, 9, 17, 19, 24}, {9, 15, 17, 20, 24}, {9, 15, 19, 24, 20}, {9, 17, 19, 20, 24}, {4, 13, 14, 24, 23}, {13, 14, 15, 23, 24}, {4, 14, 17, 24, 23}, {4, 13, 19, 23, 24}, {13, 15, 19, 23, 24}, {4, 17, 19, 24, 23}, {2, 4, 5, 12, 25}, {2, 4, 8, 25, 12}, {4, 5, 9, 25, 12}, {4, 5, 9, 13, 25}, {4, 5, 10, 25, 13}, {4, 9, 12, 14, 25}, {5, 9, 12, 25, 14}, {4, 9, 13, 25, 14}, {5, 9, 13, 14, 25}, {1, 6, 12, 25, 15}, {1, 7, 12, 15, 25}, {2, 7, 12, 25, 15}, {5, 11, 14, 25, 16}, {5, 12, 14, 16, 25}, {6, 12, 14, 25, 16}, {2, 5, 12, 25, 17}, {1, 6, 12, 17, 25}, {1, 7, 12, 25, 17}, {2, 7, 12, 17, 25}, {2, 5, 15, 17, 25}, {1, 6, 15, 25, 17}, {1, 7, 15, 17, 25}, {2, 7, 15, 25, 17}, {5, 11, 15, 17, 25}, {5, 11, 16, 25, 17}, {5, 12, 16, 17, 25}, {6, 12, 16, 25, 17}, {6, 14, 16, 17, 25}, {11, 14, 15, 18, 25}, {11, 14, 16, 25, 18}, {11, 15, 17, 18, 25}, {11, 16, 17, 25, 18}, {2, 4, 5, 25, 23}, {2, 4, 8, 23, 25}, {4, 5, 10, 23, 25}, {2, 8, 12, 23, 25}, {4, 8, 12, 25, 23}, {4, 10, 13, 23, 25}, {5, 10, 13, 25, 23}, {5, 11, 14, 23, 25}, {4, 12, 14, 25, 23}, {6, 12, 14, 23, 25}, {4, 13, 14, 23, 25}, {5, 13, 14, 25, 23}, {2, 5, 15, 25, 23}, {5, 11, 15, 25, 23}, {2, 12, 15, 23, 25}, {6, 12, 15, 25, 23}, {11, 14, 15, 25, 23}, {6, 14, 17, 23, 25}, {6, 15, 17, 25, 23}},
5,
{1, 2, 107, 196, 219, 221},
matrix {{0, x_(1,2), x_(1,3), x_(1,4), x_(1,5), 1}, {0, 1, 1, 1, 0, 1}, {0, x_(3,2), x_(3,3), x_(3,4), x_(3,5), 1}, {0, x_(4,2), x_(4,3), x_(4,4), x_(4,5), 1}, {0, x_(5,2), 0, 0, x_(5,5), 1}, {0, x_(6,2), x_(6,3), x_(6,4), x_(6,5), 1}, {0, x_(7,2), x_(7,3), x_(7,4), x_(7,5), 1}, {0, x_(8,2), x_(8,3), x_(8,4), x_(8,5), 1}, {0, x_(9,2), x_(9,3), x_(9,4), x_(9,5), 1}, {0, x_(10,2), x_(10,3), x_(10,4), x_(10,5), 1}, {0, 1, x_(11,3), 0, x_(11,5), 0}, {0, x_(12,2), x_(12,3), x_(12,4), 0, 1}, {0, x_(13,2), 0, x_(13,4), x_(13,5), 1}, {x_(14,1), 0, 0, 1, x_(14,5), 0}, {1, 0, 0, 0, 0, 0}, {x_(16,1), 0, x_(16,3), x_(16,4), x_(16,5), 1}, {x_(17,1), 0, x_(17,3), 0, x_(17,5), 1}, {1, 0, x_(18,3), x_(18,4), 1, 1}, {x_(19,1), 0, x_(19,3), x_(19,4), x_(19,5), 1}, {x_(20,1), 0, x_(20,3), x_(20,4), x_(20,5), 1}, {x_(21,1), 0, x_(21,3), x_(21,4), x_(21,5), 1}, {x_(22,1), 0, x_(22,3), x_(22,4), x_(22,5), 1}, {x_(23,1), 0, 0, 1, 0, 0}, {x_(24,1), 0, x_(24,3), x_(24,4), x_(24,5), 1}, {x_(25,1), 0, 1, 0, 0, 0}},
{{(9,218), (14,110)}, {(23,3), (25,110)}, {(9,218), (14,121)}, {(23,3), (25,121)}, {(23,3), (15,213)}, {(14,9), (15,213)}, {(23,10), (15,213)}, {(23,11), (15,213)}, {(23,40), (15,213)}, {(11,119), (15,213)}}
);
