(
{{1, 3, 4, 7}, {1, 4, 8, 7}, {2, 5, 12, 11}, {3, 4, 7, 6}, {3, 4, 6, 11}, {1, 2, 5, 9}, {1, 2, 11, 5}, {1, 2, 9, 10}, {1, 2, 10, 11}, {1, 3, 12, 4}, {1, 3, 10, 5}, {1, 3, 5, 12}, {1, 3, 7, 8}, {1, 3, 8, 10}, {1, 4, 10, 8}, {1, 4, 12, 10}, {1, 5, 6, 9}, {1, 5, 10, 6}, {1, 5, 11, 12}, {1, 6, 10, 9}, {1, 10, 12, 11}, {2, 3, 4, 5}, {2, 3, 9, 4}, {2, 3, 5, 6}, {2, 3, 6, 9}, {2, 4, 12, 5}, {2, 4, 9, 12}, {2, 5, 9, 6}, {2, 7, 10, 8}, {2, 7, 8, 11}, {2, 7, 9, 10}, {2, 7, 11, 9}, {2, 8, 10, 11}, {2, 9, 11, 12}, {3, 4, 5, 12}, {3, 4, 11, 9}, {3, 5, 6, 7}, {3, 5, 7, 8}, {3, 5, 8, 10}, {3, 6, 9, 11}, {4, 6, 12, 7}, {4, 6, 11, 12}, {4, 7, 12, 8}, {4, 8, 12, 10}, {4, 9, 12, 11}, {5, 6, 7, 8}, {5, 6, 8, 10}, {6, 7, 8, 9}, {6, 7, 9, 11}, {6, 7, 11, 12}, {6, 8, 10, 9}, {7, 8, 9, 10}, {7, 8, 11, 12}, {8, 10, 11, 12}},
4,
{1, 2, 3, 4, 5},
matrix {{0, 0, 1, x_(1,4), x_(1,5)}, {x_(2,1), x_(2,2), 0, x_(2,4), 1}, {0, x_(3,2), 1, 0, 0}, {0, 0, 1, 0, 0}, {x_(5,1), x_(5,2), 0, x_(5,4), 1}, {1, 1, 1, 0, 0}, {0, 0, 1, 0, 1}, {x_(8,1), 0, 1, x_(8,4), x_(8,5)}, {x_(9,1), x_(9,2), 1, 1, x_(9,5)}, {x_(10,1), x_(10,2), 1, x_(10,4), x_(10,5)}, {1, x_(11,2), 0, x_(11,4), 0}, {x_(12,1), x_(12,2), 0, x_(12,4), 1}},
not found
);
