(
{{1, 2, 3, 4, 5, 6, 7}, {8, 9, 10, 11, 12, 13, 14}, {1, 2, 6, 8, 14}, {1, 5, 8, 9, 14}, {6, 8, 9, 12, 11}, {1, 6, 8, 14, 9}, {3, 6, 9, 10, 11}, {5, 8, 9, 11, 10}, {3, 6, 8, 9, 13}, {6, 9, 10, 12, 11}, {3, 6, 8, 12, 9}, {6, 8, 10, 11, 12}, {1, 2, 6, 14, 7}, {1, 2, 5, 9, 14}, {1, 2, 5, 12, 10}, {2, 5, 9, 10, 14}, {1, 5, 9, 11, 10}, {1, 3, 6, 7, 14}, {1, 3, 6, 14, 9}, {1, 3, 5, 13, 8}, {1, 2, 4, 10, 12}, {2, 5, 8, 14, 10}, {2, 7, 9, 10, 11}, {4, 8, 9, 14, 13}, {2, 3, 6, 14, 7}, {2, 3, 6, 9, 14}, {1, 3, 5, 8, 12}, {1, 3, 4, 12, 10}, {2, 6, 8, 9, 14}, {2, 5, 8, 10, 12}, {3, 7, 9, 11, 10}, {7, 8, 9, 13, 12}, {1, 2, 4, 12, 5}, {1, 3, 7, 9, 14}, {2, 3, 5, 8, 13}, {1, 3, 6, 10, 12}, {1, 6, 8, 9, 11}, {1, 5, 8, 12, 10}, {5, 8, 9, 10, 14}, {1, 3, 4, 5, 12}, {2, 3, 7, 14, 9}, {2, 3, 5, 12, 8}, {1, 3, 6, 11, 10}, {1, 5, 8, 11, 9}, {1, 6, 8, 10, 12}, {3, 6, 9, 12, 10}, {2, 3, 4, 12, 5}, {1, 2, 7, 14, 9}, {2, 3, 4, 8, 12}, {1, 3, 4, 10, 11}, {2, 6, 8, 13, 9}, {2, 4, 8, 12, 10}, {3, 7, 9, 10, 12}, {1, 2, 3, 7, 11}, {1, 2, 7, 9, 11}, {1, 3, 6, 8, 13}, {1, 2, 4, 11, 10}, {2, 4, 8, 10, 14}, {3, 7, 8, 12, 10}, {1, 2, 3, 11, 4}, {1, 3, 7, 11, 9}, {1, 3, 6, 12, 8}, {2, 3, 4, 11, 10}, {2, 4, 9, 14, 10}, {3, 7, 8, 10, 13}, {4, 8, 10, 13, 14}, {1, 2, 5, 13, 6}, {1, 3, 6, 9, 11}, {2, 3, 4, 13, 8}, {2, 3, 7, 10, 11}, {3, 7, 8, 13, 9}, {3, 4, 8, 10, 12}, {3, 4, 8, 13, 10}, {4, 9, 10, 14, 13}, {1, 3, 5, 6, 13}, {1, 2, 6, 13, 8}, {2, 3, 6, 13, 9}, {2, 3, 7, 13, 10}, {3, 7, 8, 9, 12}, {1, 6, 8, 11, 10}, {2, 7, 9, 13, 10}, {7, 8, 10, 12, 13}, {2, 3, 5, 13, 6}, {1, 2, 5, 8, 13}, {2, 3, 7, 9, 13}, {2, 3, 4, 10, 13}, {2, 4, 8, 9, 13}, {1, 5, 8, 10, 11}, {2, 4, 9, 10, 13}, {7, 9, 10, 13, 12}, {1, 2, 5, 14, 8}, {1, 2, 5, 10, 9}, {2, 4, 8, 14, 9}, {1, 2, 9, 10, 11}},
5,
{1, 2, 3, 4, 5, 6},
matrix {{0, x_(1,2), 0, 0, 1, 0}, {0, x_(2,2), 0, x_(2,4), 1, x_(2,6)}, {0, 1, 1, 1, 1, 1}, {0, x_(4,2), x_(4,3), x_(4,4), 1, x_(4,6)}, {0, x_(5,2), x_(5,3), 0, 1, x_(5,6)}, {0, 1, 0, x_(6,4), 0, 0}, {0, x_(7,2), x_(7,3), x_(7,4), 1, x_(7,6)}, {1, 0, 0, 0, 0, 0}, {x_(9,1), 0, 1, 0, 0, 0}, {1, 0, x_(10,3), x_(10,4), 1, x_(10,6)}, {x_(11,1), 0, x_(11,3), x_(11,4), 0, 1}, {x_(12,1), 0, x_(12,3), x_(12,4), 0, 1}, {x_(13,1), 0, x_(13,3), x_(13,4), 1, x_(13,6)}, {x_(14,1), 0, 0, 0, 1, 0}},
{{(5,2), (11,9)}, {(5,5), (13,8)}, {(5,2), (8,7)}}
);
