(
{{1, 2, 3, 5, 4, 6, 7}, {8, 9, 10, 11, 12, 13, 14, 15}, {1, 2, 3, 8, 6}, {1, 2, 6, 8, 7}, {1, 3, 6, 7, 8}, {1, 2, 3, 4, 9}, {1, 3, 4, 9, 7}, {2, 3, 4, 7, 9}, {1, 2, 3, 10, 8}, {2, 4, 5, 10, 8}, {2, 3, 6, 8, 10}, {1, 2, 7, 8, 10}, {1, 3, 7, 10, 8}, {2, 4, 7, 8, 10}, {1, 2, 5, 7, 11}, {1, 4, 5, 11, 7}, {2, 4, 5, 7, 11}, {1, 2, 3, 11, 10}, {1, 4, 5, 10, 11}, {2, 4, 5, 11, 10}, {2, 3, 6, 10, 11}, {1, 2, 7, 10, 11}, {1, 4, 7, 11, 10}, {2, 4, 7, 10, 11}, {2, 4, 5, 8, 12}, {2, 3, 6, 9, 12}, {2, 3, 7, 12, 9}, {2, 5, 9, 10, 12}, {2, 6, 9, 12, 10}, {3, 6, 10, 12, 11}, {6, 9, 10, 12, 11}, {1, 2, 3, 9, 13}, {1, 2, 4, 13, 9}, {2, 3, 6, 13, 9}, {1, 3, 7, 9, 13}, {1, 4, 7, 13, 9}, {2, 4, 7, 9, 13}, {1, 4, 5, 13, 10}, {1, 3, 7, 13, 10}, {1, 4, 7, 10, 13}, {4, 5, 8, 10, 13}, {2, 5, 9, 13, 10}, {2, 6, 9, 10, 13}, {5, 8, 9, 13, 10}, {1, 2, 3, 13, 11}, {2, 3, 6, 11, 13}, {2, 4, 5, 12, 13}, {2, 4, 7, 13, 12}, {4, 5, 8, 13, 12}, {2, 5, 9, 12, 13}, {3, 6, 9, 13, 12}, {2, 7, 9, 13, 12}, {3, 7, 9, 12, 13}, {5, 8, 9, 12, 13}, {3, 7, 10, 13, 12}, {4, 7, 10, 12, 13}, {4, 8, 10, 13, 12}, {3, 6, 11, 12, 13}, {6, 9, 11, 12, 13}, {3, 10, 11, 13, 12}, {1, 2, 4, 5, 14}, {1, 2, 5, 11, 14}, {1, 3, 10, 14, 11}, {1, 5, 10, 11, 14}, {2, 5, 10, 14, 11}, {2, 6, 10, 11, 14}, {6, 9, 10, 11, 14}, {1, 2, 4, 14, 13}, {1, 4, 5, 14, 13}, {2, 4, 5, 13, 14}, {1, 3, 10, 13, 14}, {1, 5, 10, 14, 13}, {2, 5, 10, 13, 14}, {2, 6, 10, 14, 13}, {6, 9, 10, 14, 13}, {1, 2, 11, 13, 14}, {1, 3, 11, 14, 13}, {2, 6, 11, 13, 14}, {6, 9, 11, 13, 14}, {3, 10, 11, 14, 13}, {2, 3, 6, 15, 7}, {2, 4, 7, 15, 8}, {2, 6, 7, 8, 15}, {3, 6, 7, 15, 8}, {2, 5, 8, 15, 10}, {2, 6, 8, 10, 15}, {3, 6, 8, 15, 10}, {3, 7, 8, 10, 15}, {4, 7, 8, 15, 10}, {5, 8, 9, 10, 15}, {2, 3, 6, 12, 15}, {2, 3, 7, 15, 12}, {2, 4, 7, 12, 15}, {2, 4, 8, 15, 12}, {2, 5, 8, 12, 15}, {5, 8, 9, 15, 12}, {2, 5, 10, 15, 12}, {2, 6, 10, 12, 15}, {3, 6, 10, 15, 12}, {3, 7, 10, 12, 15}, {4, 7, 10, 15, 12}, {4, 8, 10, 12, 15}, {5, 9, 10, 15, 12}},
5,
{1, 2, 3, 29, 34, 94},
matrix {{0, x_(1,2), 0, x_(1,4), x_(1,5), 1}, {0, 1, 0, 0, 0, 0}, {0, x_(3,2), 0, x_(3,4), 0, 1}, {0, x_(4,2), 1, x_(4,4), x_(4,5), 0}, {0, 1, 1, x_(5,4), x_(5,5), x_(5,6)}, {0, x_(6,2), 0, 0, 0, 1}, {0, x_(7,2), 1, x_(7,4), x_(7,5), x_(7,6)}, {1, 0, 0, x_(8,4), x_(8,5), 0}, {x_(9,1), 0, 1, 0, 0, x_(9,6)}, {1, 0, 1, 0, 1, 1}, {x_(11,1), 0, 1, 1, x_(11,5), x_(11,6)}, {x_(12,1), 0, 1, 0, x_(12,5), 0}, {x_(13,1), 0, 1, x_(13,4), 0, x_(13,6)}, {x_(14,1), 0, 1, x_(14,4), x_(14,5), x_(14,6)}, {x_(15,1), 0, 1, x_(15,4), x_(15,5), 0}},
{{(1,8), (13,11)}, {(1,8), (2,84)}, {(2,13), (6,8)}, {(1,81), (3,14)}, {(1,8), (8,34)}, {(3,14), (1,91)}, {(1,8), (8,91)}, {(3,14), (1,26)}, {(1,8), (8,26)}}
);
