(
{{1, 2, 3, 4, 5, 6, 7}, {8, 9, 10, 11, 13, 12, 14, 15}, {1, 2, 3, 9, 4}, {1, 2, 4, 9, 6}, {1, 3, 4, 6, 9}, {1, 2, 3, 8, 9}, {2, 3, 4, 9, 8}, {2, 4, 6, 9, 8}, {1, 3, 7, 8, 9}, {1, 3, 6, 7, 10}, {2, 3, 5, 11, 6}, {1, 2, 6, 9, 11}, {1, 2, 8, 11, 9}, {2, 6, 8, 11, 9}, {5, 6, 8, 9, 11}, {1, 7, 8, 9, 11}, {2, 4, 5, 6, 12}, {1, 2, 3, 12, 8}, {2, 3, 4, 8, 12}, {2, 4, 6, 8, 12}, {4, 5, 6, 8, 12}, {2, 5, 6, 12, 11}, {1, 2, 8, 12, 11}, {3, 4, 8, 11, 12}, {4, 5, 8, 11, 12}, {2, 6, 8, 12, 11}, {5, 6, 8, 11, 12}, {2, 3, 4, 13, 5}, {3, 4, 5, 13, 6}, {1, 3, 7, 13, 8}, {1, 2, 3, 11, 13}, {2, 3, 5, 13, 11}, {3, 4, 6, 13, 11}, {3, 5, 6, 11, 13}, {4, 5, 6, 13, 11}, {1, 3, 7, 11, 13}, {1, 7, 8, 11, 13}, {7, 8, 9, 13, 11}, {1, 2, 3, 13, 12}, {2, 3, 4, 12, 13}, {2, 4, 5, 12, 13}, {1, 3, 8, 13, 12}, {1, 2, 11, 12, 13}, {3, 4, 11, 13, 12}, {2, 5, 11, 12, 13}, {4, 5, 11, 13, 12}, {3, 7, 11, 12, 13}, {1, 8, 11, 13, 12}, {1, 3, 6, 14, 9}, {3, 4, 6, 14, 9}, {1, 3, 7, 9, 14}, {3, 4, 8, 9, 14}, {4, 6, 8, 9, 14}, {5, 6, 8, 14, 9}, {3, 7, 8, 14, 9}, {1, 3, 6, 10, 14}, {3, 4, 6, 10, 14}, {1, 3, 7, 14, 10}, {1, 6, 7, 10, 14}, {4, 6, 8, 14, 10}, {1, 6, 7, 14, 11}, {3, 4, 8, 14, 11}, {1, 6, 9, 11, 14}, {5, 6, 9, 14, 11}, {1, 7, 9, 14, 11}, {3, 4, 10, 11, 14}, {5, 6, 10, 11, 14}, {3, 7, 10, 14, 11}, {6, 7, 10, 11, 14}, {4, 8, 10, 11, 14}, {3, 7, 11, 14, 12}, {3, 8, 11, 12, 14}, {3, 7, 8, 13, 14}, {7, 8, 9, 14, 13}, {7, 9, 11, 14, 13}, {3, 7, 12, 14, 13}, {3, 8, 12, 13, 14}, {7, 11, 12, 14, 13}, {1, 2, 3, 7, 15}, {1, 2, 6, 15, 7}, {2, 3, 6, 15, 7}, {4, 5, 6, 15, 8}, {3, 4, 6, 15, 10}, {3, 6, 7, 15, 10}, {4, 6, 8, 10, 15}, {1, 2, 3, 15, 11}, {1, 2, 6, 11, 15}, {2, 3, 6, 11, 15}, {3, 4, 6, 11, 15}, {4, 5, 6, 11, 15}, {1, 3, 7, 15, 11}, {1, 6, 7, 11, 15}, {4, 5, 8, 15, 11}, {5, 8, 9, 11, 15}, {3, 4, 10, 15, 11}, {5, 6, 10, 15, 11}, {3, 7, 10, 11, 15}, {6, 7, 10, 15, 11}, {4, 8, 10, 15, 11}, {5, 6, 8, 15, 14}, {5, 8, 9, 15, 14}, {5, 6, 10, 14, 15}, {6, 8, 10, 14, 15}, {5, 9, 11, 15, 14}, {5, 10, 11, 14, 15}},
5,
{1, 2, 37, 69, 70, 75},
matrix {{0, x_(1,2), 0, x_(1,4), x_(1,5), 1}, {0, x_(2,2), x_(2,3), x_(2,4), x_(2,5), 1}, {0, x_(3,2), x_(3,3), x_(3,4), x_(3,5), 1}, {0, x_(4,2), x_(4,3), x_(4,4), 0, 1}, {0, 1, 1, 1, 1, 1}, {0, x_(6,2), x_(6,3), 0, x_(6,5), 1}, {0, x_(7,2), 0, 0, 1, 0}, {1, 0, 0, x_(8,4), 0, 1}, {x_(9,1), 0, x_(9,3), x_(9,4), 1, 0}, {x_(10,1), 0, x_(10,3), 0, 0, 1}, {1, 0, 0, 0, 0, 0}, {x_(12,1), 0, x_(12,3), x_(12,4), x_(12,5), 1}, {x_(13,1), 0, 0, x_(13,4), 1, 0}, {x_(14,1), 0, 1, 0, 0, 0}, {x_(15,1), 0, x_(15,3), x_(15,4), x_(15,5), 1}},
{{(14,15), (11,55)}, {(14,15), (9,68)}, {(14,15), (13,69)}, {(14,15), (14,37)}, {(14,15), (13,61)}}
);
