(
{{1, 2, 3, 4, 5, 6, 7, 8}, {9, 10, 11, 14, 12, 13, 15}, {1, 4, 5, 8, 9}, {1, 4, 6, 9, 8}, {1, 5, 6, 8, 9}, {3, 5, 6, 9, 8}, {2, 4, 5, 10, 6}, {4, 5, 6, 10, 7}, {3, 4, 5, 7, 11}, {3, 4, 6, 11, 7}, {3, 5, 6, 7, 11}, {3, 4, 5, 11, 8}, {3, 4, 6, 8, 11}, {1, 4, 5, 9, 12}, {2, 4, 5, 12, 9}, {1, 4, 6, 12, 9}, {1, 5, 6, 9, 12}, {3, 5, 6, 12, 9}, {3, 5, 8, 9, 12}, {3, 6, 8, 12, 9}, {4, 6, 8, 9, 12}, {1, 4, 6, 11, 12}, {3, 6, 8, 11, 12}, {4, 6, 8, 12, 11}, {1, 2, 4, 13, 5}, {1, 2, 4, 6, 13}, {1, 2, 5, 13, 6}, {1, 4, 6, 13, 10}, {2, 4, 6, 10, 13}, {2, 5, 6, 13, 10}, {3, 5, 6, 10, 13}, {1, 4, 5, 12, 13}, {2, 4, 5, 13, 12}, {1, 5, 6, 12, 13}, {3, 5, 6, 13, 12}, {3, 5, 8, 12, 13}, {1, 4, 10, 13, 12}, {2, 4, 10, 12, 13}, {2, 5, 10, 13, 12}, {1, 6, 10, 12, 13}, {3, 6, 10, 13, 12}, {5, 8, 10, 13, 12}, {2, 4, 5, 9, 14}, {4, 5, 7, 14, 9}, {2, 4, 5, 14, 10}, {4, 5, 7, 10, 14}, {2, 5, 9, 14, 12}, {5, 7, 9, 14, 12}, {1, 4, 10, 12, 14}, {2, 4, 10, 14, 12}, {2, 5, 10, 12, 14}, {5, 8, 10, 12, 14}, {1, 4, 11, 14, 12}, {2, 4, 11, 12, 14}, {2, 9, 11, 14, 12}, {1, 10, 11, 12, 14}, {8, 10, 12, 13, 14}, {4, 5, 7, 9, 15}, {4, 5, 8, 15, 9}, {1, 4, 6, 10, 15}, {3, 5, 6, 15, 10}, {4, 6, 7, 15, 10}, {5, 6, 7, 10, 15}, {1, 4, 6, 15, 11}, {3, 5, 6, 11, 15}, {4, 5, 7, 15, 11}, {4, 6, 7, 11, 15}, {5, 6, 7, 15, 11}, {3, 5, 8, 15, 11}, {4, 5, 8, 11, 15}, {2, 4, 9, 12, 15}, {5, 7, 9, 12, 15}, {4, 8, 9, 12, 15}, {5, 8, 9, 15, 12}, {1, 6, 10, 15, 12}, {3, 6, 10, 12, 15}, {2, 4, 11, 15, 12}, {1, 6, 11, 12, 15}, {3, 6, 11, 15, 12}, {3, 8, 11, 12, 15}, {4, 8, 11, 15, 12}, {2, 9, 11, 12, 15}, {1, 10, 11, 15, 12}, {3, 5, 8, 13, 15}, {3, 5, 10, 15, 13}, {5, 8, 10, 15, 13}, {3, 8, 12, 13, 15}, {3, 10, 12, 15, 13}, {2, 4, 9, 15, 14}, {4, 7, 9, 15, 14}, {1, 4, 10, 14, 15}, {4, 7, 10, 14, 15}, {5, 7, 10, 15, 14}, {5, 8, 10, 14, 15}, {1, 4, 11, 15, 14}, {2, 4, 11, 14, 15}, {2, 9, 11, 15, 14}, {1, 10, 11, 14, 15}, {5, 7, 12, 14, 15}, {5, 8, 12, 15, 14}, {7, 9, 12, 14, 15}, {8, 10, 13, 15, 14}, {8, 12, 13, 14, 15}},
5,
{1, 2, 46, 89, 91, 102},
matrix {{0, x_(1,2), 1, x_(1,4), 0, x_(1,6)}, {0, x_(2,2), x_(2,3), 0, 1, x_(2,6)}, {0, x_(3,2), x_(3,3), x_(3,4), 1, x_(3,6)}, {0, 1, 0, 0, 0, x_(4,6)}, {0, 1, 0, x_(5,4), 1, 1}, {0, x_(6,2), x_(6,3), x_(6,4), 1, x_(6,6)}, {0, x_(7,2), 0, x_(7,4), 1, x_(7,6)}, {0, x_(8,2), x_(8,3), x_(8,4), 1, 0}, {x_(9,1), 0, x_(9,3), 0, 1, x_(9,6)}, {1, 0, 0, x_(10,4), 0, 0}, {x_(11,1), 0, x_(11,3), x_(11,4), 1, x_(11,6)}, {x_(12,1), 0, x_(12,3), x_(12,4), 1, x_(12,6)}, {1, 0, 1, 1, 1, 0}, {1, 0, 0, 0, 0, 0}, {1, 0, x_(15,3), 0, 0, 0}},
{{(10,101), (5,2)}, {(15,50), (7,2)}, {(7,2), (10,89)}}
);
